^C:\USERS\DNJFD\DESKTOP\STUDYING-CPP\STUDYING-CPP\X64\RELEASE\ALGORITHM_DISTANCE_IF_CONSTEXPR.OBJ|C:\USERS\DNJFD\DESKTOP\STUDYING-CPP\STUDYING-CPP\X64\RELEASE\LINKEDLIST.OBJ|C:\USERS\DNJFD\DESKTOP\STUDYING-CPP\STUDYING-CPP\X64\RELEASE\MAIN.OBJ|C:\USERS\DNJFD\DESKTOP\STUDYING-CPP\STUDYING-CPP\X64\RELEASE\MYITERATOR.OBJ|C:\USERS\DNJFD\DESKTOP\STUDYING-CPP\STUDYING-CPP\X64\RELEASE\SPEED_MEASUREMENT_ABOUT_TYPES_OF_PREDICATES.OBJ
C:\PROGRAM FILES (X86)\WINDOWS KITS\10\LIB\10.0.17763.0\UM\X64\KERNEL32.LIB
C:\PROGRAM FILES (X86)\WINDOWS KITS\10\LIB\10.0.17763.0\UM\X64\USER32.LIB
C:\PROGRAM FILES (X86)\WINDOWS KITS\10\LIB\10.0.17763.0\UM\X64\GDI32.LIB
C:\PROGRAM FILES (X86)\WINDOWS KITS\10\LIB\10.0.17763.0\UM\X64\WINSPOOL.LIB
C:\PROGRAM FILES (X86)\WINDOWS KITS\10\LIB\10.0.17763.0\UM\X64\COMDLG32.LIB
C:\PROGRAM FILES (X86)\WINDOWS KITS\10\LIB\10.0.17763.0\UM\X64\ADVAPI32.LIB
C:\PROGRAM FILES (X86)\WINDOWS KITS\10\LIB\10.0.17763.0\UM\X64\SHELL32.LIB
C:\PROGRAM FILES (X86)\WINDOWS KITS\10\LIB\10.0.17763.0\UM\X64\OLE32.LIB
C:\PROGRAM FILES (X86)\WINDOWS KITS\10\LIB\10.0.17763.0\UM\X64\OLEAUT32.LIB
C:\PROGRAM FILES (X86)\WINDOWS KITS\10\LIB\10.0.17763.0\UM\X64\UUID.LIB
C:\PROGRAM FILES (X86)\WINDOWS KITS\10\LIB\10.0.17763.0\UM\X64\ODBC32.LIB
C:\PROGRAM FILES (X86)\WINDOWS KITS\10\LIB\10.0.17763.0\UM\X64\ODBCCP32.LIB
C:\USERS\DNJFD\DESKTOP\STUDYING-CPP\STUDYING-CPP\X64\RELEASE\ALGORITHM_DISTANCE_IF_CONSTEXPR.OBJ
C:\USERS\DNJFD\DESKTOP\STUDYING-CPP\STUDYING-CPP\X64\RELEASE\LINKEDLIST.OBJ
C:\USERS\DNJFD\DESKTOP\STUDYING-CPP\STUDYING-CPP\X64\RELEASE\MAIN.OBJ
C:\USERS\DNJFD\DESKTOP\STUDYING-CPP\STUDYING-CPP\X64\RELEASE\MYITERATOR.OBJ
C:\USERS\DNJFD\DESKTOP\STUDYING-CPP\STUDYING-CPP\X64\RELEASE\SPEED_MEASUREMENT_ABOUT_TYPES_OF_PREDICATES.OBJ
C:\WINDOWS\GLOBALIZATION\SORTING\SORTDEFAULT.NLS
C:\PROGRAM FILES (X86)\MICROSOFT VISUAL STUDIO\2019\COMMUNITY\VC\TOOLS\MSVC\14.21.27702\BIN\HOSTX86\X64\C2.DLL
C:\PROGRAM FILES (X86)\MICROSOFT VISUAL STUDIO\2019\COMMUNITY\VC\TOOLS\MSVC\14.21.27702\LIB\X64\MSVCPRT.LIB
C:\PROGRAM FILES (X86)\MICROSOFT VISUAL STUDIO\2019\COMMUNITY\VC\TOOLS\MSVC\14.21.27702\LIB\X64\MSVCRT.LIB
C:\PROGRAM FILES (X86)\MICROSOFT VISUAL STUDIO\2019\COMMUNITY\VC\TOOLS\MSVC\14.21.27702\LIB\X64\OLDNAMES.LIB
C:\PROGRAM FILES (X86)\MICROSOFT VISUAL STUDIO\2019\COMMUNITY\VC\TOOLS\MSVC\14.21.27702\LIB\X64\VCRUNTIME.LIB
C:\PROGRAM FILES (X86)\WINDOWS KITS\10\LIB\10.0.17763.0\UCRT\X64\UCRT.LIB
C:\PROGRAM FILES (X86)\MICROSOFT VISUAL STUDIO\2019\COMMUNITY\VC\TOOLS\MSVC\14.21.27702\BIN\HOSTX86\X64\1042\LINKUI.DLL
C:\PROGRAM FILES (X86)\MICROSOFT VISUAL STUDIO\2019\COMMUNITY\VC\TOOLS\MSVC\14.21.27702\BIN\HOSTX86\X64\CVTRES.EXE
C:\WINDOWS\SYSTEM32\TZRES.DLL
